<svg width="25" height="34" viewBox="0 0 25 34" fill="none" xmlns="http://www.w3.org/2000/svg">
<path d="M12.0038 25.2423C12.5359 25.2423 12.9672 24.8108 12.9672 24.279V20.2885C12.9672 19.7564 12.5359 19.3252 12.0038 19.3252C11.472 19.3252 11.0405 19.7564 11.0405 20.2885V24.279C11.0405 24.8108 11.472 25.2423 12.0038 25.2423Z" fill="#3D3D3D"/>
<path d="M23.0443 11.1259H18.4851V6.43328C18.4851 3.19439 15.5776 0.55957 12.0038 0.55957C8.43026 0.55957 5.52276 3.19439 5.52276 6.43328V11.1259H0.963315C0.431234 11.1259 0 11.5574 0 12.0892V24.4089C0 29.389 4.05169 33.4407 9.03183 33.4407H14.976C19.9562 33.4407 24.0079 29.389 24.0079 24.4089V12.0892C24.0076 11.5574 23.5764 11.1259 23.0443 11.1259ZM7.44939 6.43328C7.44939 4.25679 9.49242 2.4862 12.0038 2.4862C14.5152 2.4862 16.5585 4.25679 16.5585 6.43328V11.1259H7.44939V6.43328ZM22.081 24.4089C22.081 28.3266 18.8938 31.5141 14.9758 31.5141H9.03183C5.1141 31.5141 1.92663 28.3266 1.92663 24.4089V13.0526H22.081V24.4089Z" fill="#3D3D3D"/>
</svg>
